{
  "SwaggerGenOptions": {
    "SwaggerGeneratorOptions": {
      "SwaggerDocs": {
        "v1": {
          "Title": "Blockchain Science Web API",
          "Version": "v1"
        }
      },
      "SecuritySchemes": {
        "Bearer": {
          "Type": "OAuth2",
          "Name": "oauth2", // other name?
          "In": "Header",
          "Scheme": "credentials",
          "Flows": {
            "Password": {
              "TokenUrl": "/token"
            }
          }
        }
      },
      "SecurityRequirements": [
        {
          "oauth2": [] // other name?
        }
      ]
    }
  },
  "SwaggerUIOptions": {
    "ConfigObject": {
      "Urls": [
        {
          "Url": "/swagger/v1/swagger.json",
          "Name": "Blockchain Science Web API v1"
        }
      ],
      "DocExpansion": 2
    },
    "OAuthConfigObject": {
      "ClientId": null,
      "ClientSecret": null
    }
  }
}